module gitlab.com/elixxir/remoteSyncServer

go 1.19

require (
	github.com/pkg/errors v0.9.1
	github.com/spf13/cobra v1.7.0
	github.com/spf13/jwalterweatherman v1.1.0
	github.com/spf13/pflag v1.0.5
	github.com/spf13/viper v1.16.0
	gitlab.com/elixxir/comms v0.0.4-0.20230718154315-08043221466a
	gitlab.com/elixxir/crypto v0.0.7-0.20230614183801-387e0cb8e76f
	gitlab.com/xx_network/comms v0.0.4-0.20230214180029-5387fb85736d
	gitlab.com/xx_network/crypto v0.0.5-0.20230214003943-8a09396e95dd
	gitlab.com/xx_network/primitives v0.0.4-0.20230710164512-888a035f126d
)

require (
	git.xx.network/elixxir/grpc-web-go-client v0.0.0-20230214175953-5b5a8c33d28a // indirect
	github.com/cenkalti/backoff/v4 v4.1.3 // indirect
	github.com/desertbit/timer v0.0.0-20180107155436-c41aec40b27f // indirect
	github.com/fsnotify/fsnotify v1.6.0 // indirect
	github.com/golang/protobuf v1.5.3 // indirect
	github.com/gorilla/websocket v1.5.0 // indirect
	github.com/hashicorp/hcl v1.0.0 // indirect
	github.com/improbable-eng/grpc-web v0.15.0 // indirect
	github.com/inconshreveable/mousetrap v1.1.0 // indirect
	github.com/klauspost/compress v1.11.7 // indirect
	github.com/magiconair/properties v1.8.7 // indirect
	github.com/mitchellh/go-homedir v1.1.0 // indirect
	github.com/mitchellh/mapstructure v1.5.0 // indirect
	github.com/pelletier/go-toml/v2 v2.0.8 // indirect
	github.com/rs/cors v1.8.2 // indirect
	github.com/soheilhy/cmux v0.1.5 // indirect
	github.com/spf13/afero v1.9.5 // indirect
	github.com/spf13/cast v1.5.1 // indirect
	github.com/subosito/gotenv v1.4.2 // indirect
	gitlab.com/elixxir/primitives v0.0.3-0.20230214180039-9a25e2d3969c // indirect
	go.uber.org/atomic v1.10.0 // indirect
	golang.org/x/crypto v0.9.0 // indirect
	golang.org/x/net v0.10.0 // indirect
	golang.org/x/sys v0.8.0 // indirect
	golang.org/x/text v0.9.0 // indirect
	google.golang.org/genproto v0.0.0-20230410155749-daa745c078e1 // indirect
	google.golang.org/grpc v1.55.0 // indirect
	google.golang.org/protobuf v1.30.0 // indirect
	gopkg.in/ini.v1 v1.67.0 // indirect
	gopkg.in/yaml.v3 v3.0.1 // indirect
	nhooyr.io/websocket v1.8.7 // indirect
	src.agwa.name/tlshacks v0.0.0-20220518131152-d2c6f4e2b780 // indirect
)
